
state={
	id=259
	name="STATE_259"

	history={
		owner = UKR
		buildings = {
			infrastructure = 5

		}
		add_core_of = UKR
		add_core_of = UKR
		1942.11.21 = {
			owner = RUK
			controller = RUK

		}
		2000.1.1 = {
			owner = UKR

		}

	}

	provinces={
		511 559 3557 6495 6507 6578 6605 9413 9519 11504 
	}
	manpower=1442584
	buildings_max_level_factor=1.000
	state_category=rural
}
