
state={
	id=454
	name="STATE_454"

	history={
		owner = TUR
		victory_points = {
			1201 3
		}
		victory_points = {
			1065 2
		}
		buildings = {
			infrastructure = 3

		}
		add_core_of = PAL
		add_core_of = ISR
		1950.1.1 = {
			owner = ISR

		}

	}

	provinces={
		1065 1201 
	}
	manpower=110142
	buildings_max_level_factor=1.000
	state_category=rural
}
