
state={
	id=804
	name="STATE_804"

	history={
		owner = GER
		victory_points = {
			11251 1
		}
		buildings = {
			infrastructure = 3

		}
		add_core_of = GER
	}

	provinces={
		332 11251 
	}
	manpower=250000
	buildings_max_level_factor=1.000
	state_category=pastoral
}
