
state={
	id=810
	name="STATE_810"

	history={
		owner = LIT
		buildings = {
			infrastructure = 4

		}
	}

	provinces={
		3254 12099 
	}
	manpower=137890
	buildings_max_level_factor=1.000
	state_category=pastoral
}
